-------------------------------------------------------------------------------
Test set: com.example.saudeBemEstar.SaudeApplicationTests
-------------------------------------------------------------------------------
Tests run: 1, Failures: 0, Errors: 0, Skipped: 0, Time elapsed: 5.913 s -- in com.example.saudeBemEstar.SaudeApplicationTests
